ZackLoken_Exercise3.knit
…
Calculate all landscape metrics at class level

LGRW_metrics <- landscapemetrics::calculate_lsm(LGRW, 
                                                level = "class")
LGRW_metrics

## # A tibble: 605 x 6
##    layer level class    id metric value
##    <int> <chr> <int> <int> <chr>  <dbl>
##  1     1 class     1    NA ai      88.1
##  2     1 class     2    NA ai      65.3
##  3     1 class     3    NA ai      68.2
##  4     1 class     4    NA ai      57.1
##  5     1 class     5    NA ai      20.2
##  6     1 class     6    NA ai      74.8
##  7     1 class     7    NA ai      83.1
##  8     1 class     8    NA ai      84.5
##  9     1 class     9    NA ai      76.3
## 10     1 class    10    NA ai      17.2
## # ... with 595 more rows
…
